{
	"1":{
		"width":{
			"gfloat":792.0
		}
	},
	"2":{
		"height":{
        	        "gfloat":480.0
		}
        },
	"3":{
		"x":{
			"gfloat":0.0
		}
	},
	"4":{
		"roller-type":{
			"gint":0
		}
	},
	"6":{
		"roll-over":{
        	        "gboolean":true
		}
	},
	"7":{
		"reactive":{
			"gboolean":true
		}
        },
	"8":{
		"show-arrow":{
			"gboolean":true
		}
	},
	"9":{
		"arrow-position":{
			"gfloat":640.0
		}
	}
}	
